{
  "urlImagem": "https://pacs.fleury.com.br/portal/default.aspx?urltoken=CQ9x%2fN07jWA5cLoq6cfUkamAFvB8DFrMqh8bK48draz7sUfkQUBQFUfWkie9Ff4MTBjr4WiespIHm4kWFrQPqGqi%2b9e%2fiFsIkaauCfVvw4T7WDzCVccLCVlbogIKGfUaBB92iuw5CF8VU27xi3ZmjxMeFXqpkcrft2L%2fAgjJFdUoq64%2bmAdQtdnohKhkaNkSePasFDQwlWwxLy13HmbsGA%3d%3d"
}
